x,z1,z2
0.00,1.379692568412,0.000000000000
0.10,1.280293161382,0.132984439254
0.20,1.184236890993,0.256170900855
0.30,1.094195258642,0.370033049942
0.40,1.012209180422,0.475279071990
0.50,0.939813125693,0.572794959573
0.60,0.878161995520,0.663600073367
0.70,0.828154323615,0.748815574331
0.80,0.790546419414,0.829644196610
0.90,0.766062086592,0.907362197763
1.00,0.755493723613,0.983320277982
